from sense_hat import SenseHat
sense = SenseHat()
gyro_only = sense.get_gyroscope()
print(gyro_only)
def cadenas(c):
  a = 'ok'
  while True:
    for x in c:
      for event in sense.stick.get_events():
        if event.direction == 'right':
          if x['roll'] == gyro_only['roll']:
            sense.show_message(a)
            print(x['roll'])
            break 
          else:
            sense.show_message("sad")
            break
  
c = ({'roll':0,'pitch':0,'yaw':90},{'roll':90,'pitch':70,'yaw':180})
cadenas(c)